{
  "contacts": [
    {
      "name": 1496605193555,
      "selected": false,
      "_id": 97,
      "id": 97
    },
    {
      "name": 1496605198546,
      "selected": false,
      "_id": 98
    },
    {
      "name": "Jaana",
      "selected": false,
      "_id": 99
    },
    {
      "name": "Jaak",
      "selected": false,
      "_id": 100
    },
    {
      "name": "Tiit",
      "phone": "aa",
      "selected": false,
      "_id": 101
    },
    {
      "name": "Tiina",
      "selected": false,
      "_id": 102
    },
    {
      "name": "sitaauk",
      "phone": 456,
      "selected": false,
      "_id": 103
    },
    {
      "name": 1496750125353,
      "phone": 1496750125354,
      "selected": false,
      "_id": 104
    },
    {
      "name": 1496750128136,
      "selected": false,
      "_id": 105,
      "id": 105
    },
    {
      "name": 1496750132861,
      "selected": false,
      "_id": 106
    },
    {
      "name": "Jaana",
      "selected": false,
      "_id": 107
    },
    {
      "name": "Jaak",
      "selected": false,
      "_id": 108
    },
    {
      "name": "Tiit",
      "phone": "aa",
      "selected": false,
      "_id": 109
    },
    {
      "name": "Tiina",
      "selected": false,
      "_id": 110
    },
    {
      "name": 1496750193216,
      "phone": 1496750193217,
      "selected": false,
      "_id": 111
    },
    {
      "name": 1496750196446,
      "selected": false,
      "_id": 112,
      "id": 112
    },
    {
      "name": 1496750202186,
      "selected": false,
      "_id": 113
    },
    {
      "name": "Jaana",
      "selected": false,
      "_id": 114
    },
    {
      "name": "Jaak",
      "selected": false,
      "_id": 115
    },
    {
      "name": "Tiit",
      "phone": "aa",
      "selected": false,
      "_id": 116
    },
    {
      "name": "Tiina",
      "selected": false,
      "_id": 117
    }
  ]
}